{
    "name": "VocaDB",
    "short": "Search for a song on VocaDB.",
    "description": "Search for a song on Vocaloid Database.",
    "end_user_data_statement": "This cog does not persistently store data or metadata about users.",
    "install_msg": "Thank you for installing this weeb cog. I hope you will enjoy it.",
    "author": ["<@306810730055729152>"],
    "required_cogs": {},
    "requirements": [],
    "tags": ["vocadb", "vocaloid"],
    "min_bot_version": "3.4.12",
    "hidden": false,
	"disabled": false,
    "type": "COG"
}
