{
    "name": "Roleplay",
    "short": "Roleplay with friends on Discord with count stats.",
    "description": "Roleplay with friends (or strangers) on Discord with count stats, (hug, pat, nom, cry and 12+ more commands).",
    "end_user_data_statement": "This cog does not persistently store any PII data or metadata about users.",
    "install_msg": "I hope you will enjoy this Roleplay cog, or not.",
    "author": ["<@306810730055729152>"],
    "required_cogs": {},
    "requirements": ["tabulate"],
    "tags": [
        "baka",
        "bully",
        "cry",
        "cuddle",
        "feed",
        "highfive",
        "hug",
        "kill",
        "kiss",
        "lick",
        "nom",
        "pat",
        "poke",
        "punch",
        "slap",
        "smug",
        "tickle",
        "roleplay"
    ],
    "min_bot_version": "3.4.12",
    "hidden": false,
    "disabled": false,
    "type": "COG"
}
